{
  "project_info": {
    "project_number": "1048384984874",
    "project_id": "myguardian-fe5b5",
    "storage_bucket": "myguardian-fe5b5.appspot.com"
  },
  "client": [
    {
      "client_info": {
        "mobilesdk_app_id": "1:1048384984874:android:f94aae0a619f291eaff053",
        "android_client_info": {
          "package_name": "com.myguardian"
        }
      },
      "oauth_client": [
        {
          "client_id": "1048384984874-073lqsm0t3tu9elbtgpbn396907nf093.apps.googleusercontent.com",
          "client_type": 1,
          "android_info": {
            "package_name": "com.myguardian",
            "certificate_hash": "52ebe06de16e8a4639b7ee4be6888cafd2b7cf55"
          }
        },
        {
          "client_id": "1048384984874-5sfq934c67jss5nup4iffk623rujk63i.apps.googleusercontent.com",
          "client_type": 3
        }
      ],
      "api_key": [
        {
          "current_key": "AIzaSyBgTbluscY2HlBL1URxMQHtmWo2lg9pYGs"
        }
      ],
      "services": {
        "appinvite_service": {
          "other_platform_oauth_client": [
            {
              "client_id": "1048384984874-5sfq934c67jss5nup4iffk623rujk63i.apps.googleusercontent.com",
              "client_type": 3
            }
          ]
        }
      }
    }
  ],
  "configuration_version": "1"
}